module gitlab.com/ptdq-go-template/modulefx/echofx

go 1.19

require (
	github.com/labstack/echo/v4 v4.10.0
	go.uber.org/fx v1.17.1
)

require (
	github.com/labstack/gommon v0.4.0 // indirect
	github.com/mattn/go-colorable v0.1.13 // indirect
	github.com/mattn/go-isatty v0.0.16 // indirect
	github.com/valyala/bytebufferpool v1.0.0 // indirect
	github.com/valyala/fasttemplate v1.2.2 // indirect
	go.uber.org/atomic v1.7.0 // indirect
	go.uber.org/dig v1.16.0 // indirect
	go.uber.org/multierr v1.6.0 // indirect
	go.uber.org/zap v1.23.0 // indirect
	golang.org/x/crypto v0.2.0 // indirect
	golang.org/x/net v0.4.0 // indirect
	golang.org/x/sys v0.3.0 // indirect
	golang.org/x/text v0.5.0 // indirect
)
